%YAML 1.1
%TAG !u! tag:unity3d.com,2011:
--- !u!1001 &8582898101637589815
PrefabInstance:
  m_ObjectHideFlags: 0
  serializedVersion: 2
  m_Modification:
    m_TransformParent: {fileID: 0}
    m_Modifications:
    - target: {fileID: 9092566002601480364, guid: 480fd42d5c5fdea4b9e16af06b321334, type: 3}
      propertyPath: m_Name
      value: ItemPickup_WpnRof Variant
      objectReference: {fileID: 0}
    - target: {fileID: 9092566002601480365, guid: 480fd42d5c5fdea4b9e16af06b321334, type: 3}
      propertyPath: itemid
      value: 
      objectReference: {fileID: 11400000, guid: 8d71ecc0b5095974b81baf920225a31c, type: 2}
    - target: {fileID: 9092566002601480402, guid: 480fd42d5c5fdea4b9e16af06b321334, type: 3}
      propertyPath: m_Sprite
      value: 
      objectReference: {fileID: 21300000, guid: 9908e420ca0152b44acc7e59f7e02b08, type: 3}
    - target: {fileID: 9092566002601480403, guid: 480fd42d5c5fdea4b9e16af06b321334, type: 3}
      propertyPath: m_RootOrder
      value: 0
      objectReference: {fileID: 0}
    - target: {fileID: 9092566002601480403, guid: 480fd42d5c5fdea4b9e16af06b321334, type: 3}
      propertyPath: m_LocalPosition.x
      value: -5.682
      objectReference: {fileID: 0}
    - target: {fileID: 9092566002601480403, guid: 480fd42d5c5fdea4b9e16af06b321334, type: 3}
      propertyPath: m_LocalPosition.y
      value: -2.77
      objectReference: {fileID: 0}
    - target: {fileID: 9092566002601480403, guid: 480fd42d5c5fdea4b9e16af06b321334, type: 3}
      propertyPath: m_LocalPosition.z
      value: 0
      objectReference: {fileID: 0}
    - target: {fileID: 9092566002601480403, guid: 480fd42d5c5fdea4b9e16af06b321334, type: 3}
      propertyPath: m_LocalRotation.w
      value: 1
      objectReference: {fileID: 0}
    - target: {fileID: 9092566002601480403, guid: 480fd42d5c5fdea4b9e16af06b321334, type: 3}
      propertyPath: m_LocalRotation.x
      value: 0
      objectReference: {fileID: 0}
    - target: {fileID: 9092566002601480403, guid: 480fd42d5c5fdea4b9e16af06b321334, type: 3}
      propertyPath: m_LocalRotation.y
      value: 0
      objectReference: {fileID: 0}
    - target: {fileID: 9092566002601480403, guid: 480fd42d5c5fdea4b9e16af06b321334, type: 3}
      propertyPath: m_LocalRotation.z
      value: 0
      objectReference: {fileID: 0}
    - target: {fileID: 9092566002601480403, guid: 480fd42d5c5fdea4b9e16af06b321334, type: 3}
      propertyPath: m_LocalEulerAnglesHint.x
      value: 0
      objectReference: {fileID: 0}
    - target: {fileID: 9092566002601480403, guid: 480fd42d5c5fdea4b9e16af06b321334, type: 3}
      propertyPath: m_LocalEulerAnglesHint.y
      value: 0
      objectReference: {fileID: 0}
    - target: {fileID: 9092566002601480403, guid: 480fd42d5c5fdea4b9e16af06b321334, type: 3}
      propertyPath: m_LocalEulerAnglesHint.z
      value: 0
      objectReference: {fileID: 0}
    m_RemovedComponents: []
  m_SourcePrefab: {fileID: 100100000, guid: 480fd42d5c5fdea4b9e16af06b321334, type: 3}
