%YAML 1.1
%TAG !u! tag:unity3d.com,2011:
--- !u!1001 &1154857995928717706
PrefabInstance:
  m_ObjectHideFlags: 0
  serializedVersion: 2
  m_Modification:
    m_TransformParent: {fileID: 0}
    m_Modifications:
    - target: {fileID: 6572567152892921053, guid: 480fd42d5c5fdea4b9e16af06b321334, type: 3}
      propertyPath: m_LocalPosition.x
      value: 0.04
      objectReference: {fileID: 0}
    - target: {fileID: 9092566002601480364, guid: 480fd42d5c5fdea4b9e16af06b321334, type: 3}
      propertyPath: m_Name
      value: ItemPickup_PotionLarge
      objectReference: {fileID: 0}
    - target: {fileID: 9092566002601480365, guid: 480fd42d5c5fdea4b9e16af06b321334, type: 3}
      propertyPath: itemid
      value: 
      objectReference: {fileID: 11400000, guid: a0f2445b640e9ac468dd1dafd219c2e5, type: 2}
    - target: {fileID: 9092566002601480400, guid: 480fd42d5c5fdea4b9e16af06b321334, type: 3}
      propertyPath: m_Size.x
      value: 2.1658144
      objectReference: {fileID: 0}
    - target: {fileID: 9092566002601480400, guid: 480fd42d5c5fdea4b9e16af06b321334, type: 3}
      propertyPath: m_Size.y
      value: 1.1799793
      objectReference: {fileID: 0}
    - target: {fileID: 9092566002601480400, guid: 480fd42d5c5fdea4b9e16af06b321334, type: 3}
      propertyPath: m_Offset.x
      value: 0.038537204
      objectReference: {fileID: 0}
    - target: {fileID: 9092566002601480400, guid: 480fd42d5c5fdea4b9e16af06b321334, type: 3}
      propertyPath: m_Offset.y
      value: -0.5329337
      objectReference: {fileID: 0}
    - target: {fileID: 9092566002601480402, guid: 480fd42d5c5fdea4b9e16af06b321334, type: 3}
      propertyPath: m_Sprite
      value: 
      objectReference: {fileID: 21300000, guid: c1a1e48ac5aa86245aea72772c5714c8, type: 3}
    - target: {fileID: 9092566002601480403, guid: 480fd42d5c5fdea4b9e16af06b321334, type: 3}
      propertyPath: m_RootOrder
      value: 0
      objectReference: {fileID: 0}
    - target: {fileID: 9092566002601480403, guid: 480fd42d5c5fdea4b9e16af06b321334, type: 3}
      propertyPath: m_LocalPosition.x
      value: -2.468
      objectReference: {fileID: 0}
    - target: {fileID: 9092566002601480403, guid: 480fd42d5c5fdea4b9e16af06b321334, type: 3}
      propertyPath: m_LocalPosition.y
      value: -0.1
      objectReference: {fileID: 0}
    - target: {fileID: 9092566002601480403, guid: 480fd42d5c5fdea4b9e16af06b321334, type: 3}
      propertyPath: m_LocalPosition.z
      value: 0
      objectReference: {fileID: 0}
    - target: {fileID: 9092566002601480403, guid: 480fd42d5c5fdea4b9e16af06b321334, type: 3}
      propertyPath: m_LocalRotation.w
      value: 1
      objectReference: {fileID: 0}
    - target: {fileID: 9092566002601480403, guid: 480fd42d5c5fdea4b9e16af06b321334, type: 3}
      propertyPath: m_LocalRotation.x
      value: 0
      objectReference: {fileID: 0}
    - target: {fileID: 9092566002601480403, guid: 480fd42d5c5fdea4b9e16af06b321334, type: 3}
      propertyPath: m_LocalRotation.y
      value: 0
      objectReference: {fileID: 0}
    - target: {fileID: 9092566002601480403, guid: 480fd42d5c5fdea4b9e16af06b321334, type: 3}
      propertyPath: m_LocalRotation.z
      value: 0
      objectReference: {fileID: 0}
    - target: {fileID: 9092566002601480403, guid: 480fd42d5c5fdea4b9e16af06b321334, type: 3}
      propertyPath: m_LocalEulerAnglesHint.x
      value: 0
      objectReference: {fileID: 0}
    - target: {fileID: 9092566002601480403, guid: 480fd42d5c5fdea4b9e16af06b321334, type: 3}
      propertyPath: m_LocalEulerAnglesHint.y
      value: 0
      objectReference: {fileID: 0}
    - target: {fileID: 9092566002601480403, guid: 480fd42d5c5fdea4b9e16af06b321334, type: 3}
      propertyPath: m_LocalEulerAnglesHint.z
      value: 0
      objectReference: {fileID: 0}
    m_RemovedComponents: []
  m_SourcePrefab: {fileID: 100100000, guid: 480fd42d5c5fdea4b9e16af06b321334, type: 3}
