%YAML 1.1
%TAG !u! tag:unity3d.com,2011:
--- !u!1001 &1686023577143748540
PrefabInstance:
  m_ObjectHideFlags: 0
  serializedVersion: 2
  m_Modification:
    m_TransformParent: {fileID: 0}
    m_Modifications:
    - target: {fileID: 7587084435037419280, guid: ab4e02a12035ffd47b5a951ea466a5f2, type: 3}
      propertyPath: m_Name
      value: ItemPickup_WpnBullets Variant
      objectReference: {fileID: 0}
    - target: {fileID: 7587084435037419281, guid: ab4e02a12035ffd47b5a951ea466a5f2, type: 3}
      propertyPath: itemid
      value: 
      objectReference: {fileID: 11400000, guid: 6e29f6870f683534480dcbe679a76896, type: 2}
    - target: {fileID: 7587084435037419372, guid: ab4e02a12035ffd47b5a951ea466a5f2, type: 3}
      propertyPath: m_Size.x
      value: 1.699858
      objectReference: {fileID: 0}
    - target: {fileID: 7587084435037419372, guid: ab4e02a12035ffd47b5a951ea466a5f2, type: 3}
      propertyPath: m_Size.y
      value: 1.2282057
      objectReference: {fileID: 0}
    - target: {fileID: 7587084435037419372, guid: ab4e02a12035ffd47b5a951ea466a5f2, type: 3}
      propertyPath: m_Offset.x
      value: -0.0010311604
      objectReference: {fileID: 0}
    - target: {fileID: 7587084435037419372, guid: ab4e02a12035ffd47b5a951ea466a5f2, type: 3}
      propertyPath: m_Offset.y
      value: -0.8317903
      objectReference: {fileID: 0}
    - target: {fileID: 7587084435037419372, guid: ab4e02a12035ffd47b5a951ea466a5f2, type: 3}
      propertyPath: m_SpriteTilingProperty.oldSize.x
      value: 2.56
      objectReference: {fileID: 0}
    - target: {fileID: 7587084435037419372, guid: ab4e02a12035ffd47b5a951ea466a5f2, type: 3}
      propertyPath: m_SpriteTilingProperty.oldSize.y
      value: 2.56
      objectReference: {fileID: 0}
    - target: {fileID: 7587084435037419374, guid: ab4e02a12035ffd47b5a951ea466a5f2, type: 3}
      propertyPath: m_Sprite
      value: 
      objectReference: {fileID: 21300000, guid: 19f4e31275c04a54ca6c987809be702b, type: 3}
    - target: {fileID: 7587084435037419375, guid: ab4e02a12035ffd47b5a951ea466a5f2, type: 3}
      propertyPath: m_RootOrder
      value: 0
      objectReference: {fileID: 0}
    - target: {fileID: 7587084435037419375, guid: ab4e02a12035ffd47b5a951ea466a5f2, type: 3}
      propertyPath: m_LocalScale.x
      value: 0.4
      objectReference: {fileID: 0}
    - target: {fileID: 7587084435037419375, guid: ab4e02a12035ffd47b5a951ea466a5f2, type: 3}
      propertyPath: m_LocalScale.y
      value: 0.4
      objectReference: {fileID: 0}
    - target: {fileID: 7587084435037419375, guid: ab4e02a12035ffd47b5a951ea466a5f2, type: 3}
      propertyPath: m_LocalScale.z
      value: 1
      objectReference: {fileID: 0}
    - target: {fileID: 7587084435037419375, guid: ab4e02a12035ffd47b5a951ea466a5f2, type: 3}
      propertyPath: m_LocalPosition.x
      value: -6.9
      objectReference: {fileID: 0}
    - target: {fileID: 7587084435037419375, guid: ab4e02a12035ffd47b5a951ea466a5f2, type: 3}
      propertyPath: m_LocalPosition.y
      value: -2.77
      objectReference: {fileID: 0}
    - target: {fileID: 7587084435037419375, guid: ab4e02a12035ffd47b5a951ea466a5f2, type: 3}
      propertyPath: m_LocalPosition.z
      value: 0
      objectReference: {fileID: 0}
    - target: {fileID: 7587084435037419375, guid: ab4e02a12035ffd47b5a951ea466a5f2, type: 3}
      propertyPath: m_LocalRotation.w
      value: 1
      objectReference: {fileID: 0}
    - target: {fileID: 7587084435037419375, guid: ab4e02a12035ffd47b5a951ea466a5f2, type: 3}
      propertyPath: m_LocalRotation.x
      value: 0
      objectReference: {fileID: 0}
    - target: {fileID: 7587084435037419375, guid: ab4e02a12035ffd47b5a951ea466a5f2, type: 3}
      propertyPath: m_LocalRotation.y
      value: 0
      objectReference: {fileID: 0}
    - target: {fileID: 7587084435037419375, guid: ab4e02a12035ffd47b5a951ea466a5f2, type: 3}
      propertyPath: m_LocalRotation.z
      value: 0
      objectReference: {fileID: 0}
    - target: {fileID: 7587084435037419375, guid: ab4e02a12035ffd47b5a951ea466a5f2, type: 3}
      propertyPath: m_LocalEulerAnglesHint.x
      value: 0
      objectReference: {fileID: 0}
    - target: {fileID: 7587084435037419375, guid: ab4e02a12035ffd47b5a951ea466a5f2, type: 3}
      propertyPath: m_LocalEulerAnglesHint.y
      value: 0
      objectReference: {fileID: 0}
    - target: {fileID: 7587084435037419375, guid: ab4e02a12035ffd47b5a951ea466a5f2, type: 3}
      propertyPath: m_LocalEulerAnglesHint.z
      value: 0
      objectReference: {fileID: 0}
    m_RemovedComponents: []
  m_SourcePrefab: {fileID: 100100000, guid: ab4e02a12035ffd47b5a951ea466a5f2, type: 3}
