%YAML 1.1
%TAG !u! tag:unity3d.com,2011:
--- !u!114 &11400000
MonoBehaviour:
  m_ObjectHideFlags: 0
  m_CorrespondingSourceObject: {fileID: 0}
  m_PrefabInstance: {fileID: 0}
  m_PrefabAsset: {fileID: 0}
  m_GameObject: {fileID: 0}
  m_Enabled: 1
  m_EditorHideFlags: 0
  m_Script: {fileID: 11500000, guid: e363096271fae3a4eac46d59645b9993, type: 3}
  m_Name: Item_HPMax
  m_EditorClassIdentifier: 
  id: 3
  itemName: Vigor
  itemDescription: Increased total hitpoints.
  itemImage: {fileID: 21300000, guid: ee4856514887efb408c4d5addbd1ab3a, type: 3}
  playerHealth: 10
  playerHealing: 10
  playerSpeed: 0
  weaponDamage: 0
  weaponSize: 0
  weaponRof: 0
  weaponBullets: 0
  weaponSpeed: 0
