%YAML 1.1
%TAG !u! tag:unity3d.com,2011:
--- !u!1 &217548568787870632
GameObject:
  m_ObjectHideFlags: 0
  m_CorrespondingSourceObject: {fileID: 0}
  m_PrefabInstance: {fileID: 0}
  m_PrefabAsset: {fileID: 0}
  serializedVersion: 6
  m_Component:
  - component: {fileID: 9084137030308292026}
  - component: {fileID: 7693742437534721192}
  - component: {fileID: 2471617110014099948}
  m_Layer: 0
  m_Name: Layer1
  m_TagString: Untagged
  m_Icon: {fileID: 0}
  m_NavMeshLayer: 0
  m_StaticEditorFlags: 0
  m_IsActive: 1
--- !u!4 &9084137030308292026
Transform:
  m_ObjectHideFlags: 0
  m_CorrespondingSourceObject: {fileID: 0}
  m_PrefabInstance: {fileID: 0}
  m_PrefabAsset: {fileID: 0}
  m_GameObject: {fileID: 217548568787870632}
  m_LocalRotation: {x: -0, y: -0, z: -0, w: 1}
  m_LocalPosition: {x: 0, y: 0, z: 0}
  m_LocalScale: {x: 1, y: 1, z: 1}
  m_ConstrainProportionsScale: 0
  m_Children: []
  m_Father: {fileID: 6890611367865703087}
  m_RootOrder: 0
  m_LocalEulerAnglesHint: {x: 0, y: 0, z: 0}
--- !u!1839735485 &7693742437534721192
Tilemap:
  m_ObjectHideFlags: 0
  m_CorrespondingSourceObject: {fileID: 0}
  m_PrefabInstance: {fileID: 0}
  m_PrefabAsset: {fileID: 0}
  m_GameObject: {fileID: 217548568787870632}
  m_Enabled: 1
  m_Tiles:
  - first: {x: -2, y: -7, z: 0}
    second:
      serializedVersion: 2
      m_TileIndex: 35
      m_TileSpriteIndex: 56
      m_TileMatrixIndex: 3
      m_TileColorIndex: 0
      m_TileObjectToInstantiateIndex: 65535
      dummyAlignment: 0
      m_AllTileFlags: 1073741825
  - first: {x: -1, y: -7, z: 0}
    second:
      serializedVersion: 2
      m_TileIndex: 36
      m_TileSpriteIndex: 55
      m_TileMatrixIndex: 3
      m_TileColorIndex: 0
      m_TileObjectToInstantiateIndex: 65535
      dummyAlignment: 0
      m_AllTileFlags: 1073741825
  - first: {x: 0, y: -7, z: 0}
    second:
      serializedVersion: 2
      m_TileIndex: 37
      m_TileSpriteIndex: 54
      m_TileMatrixIndex: 3
      m_TileColorIndex: 0
      m_TileObjectToInstantiateIndex: 65535
      dummyAlignment: 0
      m_AllTileFlags: 1073741825
  - first: {x: 1, y: -7, z: 0}
    second:
      serializedVersion: 2
      m_TileIndex: 38
      m_TileSpriteIndex: 53
      m_TileMatrixIndex: 3
      m_TileColorIndex: 0
      m_TileObjectToInstantiateIndex: 65535
      dummyAlignment: 0
      m_AllTileFlags: 1073741825
  - first: {x: 2, y: -7, z: 0}
    second:
      serializedVersion: 2
      m_TileIndex: 39
      m_TileSpriteIndex: 52
      m_TileMatrixIndex: 3
      m_TileColorIndex: 0
      m_TileObjectToInstantiateIndex: 65535
      dummyAlignment: 0
      m_AllTileFlags: 1073741825
  - first: {x: 3, y: -7, z: 0}
    second:
      serializedVersion: 2
      m_TileIndex: 40
      m_TileSpriteIndex: 51
      m_TileMatrixIndex: 3
      m_TileColorIndex: 0
      m_TileObjectToInstantiateIndex: 65535
      dummyAlignment: 0
      m_AllTileFlags: 1073741825
  - first: {x: 4, y: -7, z: 0}
    second:
      serializedVersion: 2
      m_TileIndex: 41
      m_TileSpriteIndex: 50
      m_TileMatrixIndex: 3
      m_TileColorIndex: 0
      m_TileObjectToInstantiateIndex: 65535
      dummyAlignment: 0
      m_AllTileFlags: 1073741825
  - first: {x: -2, y: -6, z: 0}
    second:
      serializedVersion: 2
      m_TileIndex: 28
      m_TileSpriteIndex: 49
      m_TileMatrixIndex: 3
      m_TileColorIndex: 0
      m_TileObjectToInstantiateIndex: 65535
      dummyAlignment: 0
      m_AllTileFlags: 1073741825
  - first: {x: -1, y: -6, z: 0}
    second:
      serializedVersion: 2
      m_TileIndex: 29
      m_TileSpriteIndex: 48
      m_TileMatrixIndex: 3
      m_TileColorIndex: 0
      m_TileObjectToInstantiateIndex: 65535
      dummyAlignment: 0
      m_AllTileFlags: 1073741825
  - first: {x: 0, y: -6, z: 0}
    second:
      serializedVersion: 2
      m_TileIndex: 30
      m_TileSpriteIndex: 47
      m_TileMatrixIndex: 3
      m_TileColorIndex: 0
      m_TileObjectToInstantiateIndex: 65535
      dummyAlignment: 0
      m_AllTileFlags: 1073741825
  - first: {x: 1, y: -6, z: 0}
    second:
      serializedVersion: 2
      m_TileIndex: 31
      m_TileSpriteIndex: 46
      m_TileMatrixIndex: 3
      m_TileColorIndex: 0
      m_TileObjectToInstantiateIndex: 65535
      dummyAlignment: 0
      m_AllTileFlags: 1073741825
  - first: {x: 2, y: -6, z: 0}
    second:
      serializedVersion: 2
      m_TileIndex: 32
      m_TileSpriteIndex: 45
      m_TileMatrixIndex: 3
      m_TileColorIndex: 0
      m_TileObjectToInstantiateIndex: 65535
      dummyAlignment: 0
      m_AllTileFlags: 1073741825
  - first: {x: 3, y: -6, z: 0}
    second:
      serializedVersion: 2
      m_TileIndex: 33
      m_TileSpriteIndex: 44
      m_TileMatrixIndex: 3
      m_TileColorIndex: 0
      m_TileObjectToInstantiateIndex: 65535
      dummyAlignment: 0
      m_AllTileFlags: 1073741825
  - first: {x: 4, y: -6, z: 0}
    second:
      serializedVersion: 2
      m_TileIndex: 34
      m_TileSpriteIndex: 43
      m_TileMatrixIndex: 3
      m_TileColorIndex: 0
      m_TileObjectToInstantiateIndex: 65535
      dummyAlignment: 0
      m_AllTileFlags: 1073741825
  - first: {x: -2, y: -5, z: 0}
    second:
      serializedVersion: 2
      m_TileIndex: 21
      m_TileSpriteIndex: 42
      m_TileMatrixIndex: 3
      m_TileColorIndex: 0
      m_TileObjectToInstantiateIndex: 65535
      dummyAlignment: 0
      m_AllTileFlags: 1073741825
  - first: {x: -1, y: -5, z: 0}
    second:
      serializedVersion: 2
      m_TileIndex: 22
      m_TileSpriteIndex: 41
      m_TileMatrixIndex: 3
      m_TileColorIndex: 0
      m_TileObjectToInstantiateIndex: 65535
      dummyAlignment: 0
      m_AllTileFlags: 1073741825
  - first: {x: 0, y: -5, z: 0}
    second:
      serializedVersion: 2
      m_TileIndex: 23
      m_TileSpriteIndex: 40
      m_TileMatrixIndex: 3
      m_TileColorIndex: 0
      m_TileObjectToInstantiateIndex: 65535
      dummyAlignment: 0
      m_AllTileFlags: 1073741825
  - first: {x: 1, y: -5, z: 0}
    second:
      serializedVersion: 2
      m_TileIndex: 24
      m_TileSpriteIndex: 39
      m_TileMatrixIndex: 3
      m_TileColorIndex: 0
      m_TileObjectToInstantiateIndex: 65535
      dummyAlignment: 0
      m_AllTileFlags: 1073741825
  - first: {x: 2, y: -5, z: 0}
    second:
      serializedVersion: 2
      m_TileIndex: 25
      m_TileSpriteIndex: 38
      m_TileMatrixIndex: 3
      m_TileColorIndex: 0
      m_TileObjectToInstantiateIndex: 65535
      dummyAlignment: 0
      m_AllTileFlags: 1073741825
  - first: {x: 3, y: -5, z: 0}
    second:
      serializedVersion: 2
      m_TileIndex: 26
      m_TileSpriteIndex: 37
      m_TileMatrixIndex: 3
      m_TileColorIndex: 0
      m_TileObjectToInstantiateIndex: 65535
      dummyAlignment: 0
      m_AllTileFlags: 1073741825
  - first: {x: 4, y: -5, z: 0}
    second:
      serializedVersion: 2
      m_TileIndex: 27
      m_TileSpriteIndex: 36
      m_TileMatrixIndex: 3
      m_TileColorIndex: 0
      m_TileObjectToInstantiateIndex: 65535
      dummyAlignment: 0
      m_AllTileFlags: 1073741825
  - first: {x: -2, y: -4, z: 0}
    second:
      serializedVersion: 2
      m_TileIndex: 14
      m_TileSpriteIndex: 35
      m_TileMatrixIndex: 3
      m_TileColorIndex: 0
      m_TileObjectToInstantiateIndex: 65535
      dummyAlignment: 0
      m_AllTileFlags: 1073741825
  - first: {x: -1, y: -4, z: 0}
    second:
      serializedVersion: 2
      m_TileIndex: 15
      m_TileSpriteIndex: 34
      m_TileMatrixIndex: 3
      m_TileColorIndex: 0
      m_TileObjectToInstantiateIndex: 65535
      dummyAlignment: 0
      m_AllTileFlags: 1073741825
  - first: {x: 0, y: -4, z: 0}
    second:
      serializedVersion: 2
      m_TileIndex: 16
      m_TileSpriteIndex: 33
      m_TileMatrixIndex: 3
      m_TileColorIndex: 0
      m_TileObjectToInstantiateIndex: 65535
      dummyAlignment: 0
      m_AllTileFlags: 1073741825
  - first: {x: 1, y: -4, z: 0}
    second:
      serializedVersion: 2
      m_TileIndex: 17
      m_TileSpriteIndex: 32
      m_TileMatrixIndex: 3
      m_TileColorIndex: 0
      m_TileObjectToInstantiateIndex: 65535
      dummyAlignment: 0
      m_AllTileFlags: 1073741825
  - first: {x: 2, y: -4, z: 0}
    second:
      serializedVersion: 2
      m_TileIndex: 18
      m_TileSpriteIndex: 31
      m_TileMatrixIndex: 3
      m_TileColorIndex: 0
      m_TileObjectToInstantiateIndex: 65535
      dummyAlignment: 0
      m_AllTileFlags: 1073741825
  - first: {x: 3, y: -4, z: 0}
    second:
      serializedVersion: 2
      m_TileIndex: 19
      m_TileSpriteIndex: 30
      m_TileMatrixIndex: 3
      m_TileColorIndex: 0
      m_TileObjectToInstantiateIndex: 65535
      dummyAlignment: 0
      m_AllTileFlags: 1073741825
  - first: {x: 4, y: -4, z: 0}
    second:
      serializedVersion: 2
      m_TileIndex: 20
      m_TileSpriteIndex: 29
      m_TileMatrixIndex: 3
      m_TileColorIndex: 0
      m_TileObjectToInstantiateIndex: 65535
      dummyAlignment: 0
      m_AllTileFlags: 1073741825
  - first: {x: -2, y: -3, z: 0}
    second:
      serializedVersion: 2
      m_TileIndex: 56
      m_TileSpriteIndex: 16
      m_TileMatrixIndex: 3
      m_TileColorIndex: 0
      m_TileObjectToInstantiateIndex: 65535
      dummyAlignment: 0
      m_AllTileFlags: 1073741825
  - first: {x: -1, y: -3, z: 0}
    second:
      serializedVersion: 2
      m_TileIndex: 8
      m_TileSpriteIndex: 28
      m_TileMatrixIndex: 3
      m_TileColorIndex: 0
      m_TileObjectToInstantiateIndex: 65535
      dummyAlignment: 0
      m_AllTileFlags: 1073741825
  - first: {x: 1, y: -3, z: 0}
    second:
      serializedVersion: 2
      m_TileIndex: 10
      m_TileSpriteIndex: 27
      m_TileMatrixIndex: 3
      m_TileColorIndex: 0
      m_TileObjectToInstantiateIndex: 65535
      dummyAlignment: 0
      m_AllTileFlags: 1073741825
  - first: {x: 2, y: -3, z: 0}
    second:
      serializedVersion: 2
      m_TileIndex: 11
      m_TileSpriteIndex: 26
      m_TileMatrixIndex: 3
      m_TileColorIndex: 0
      m_TileObjectToInstantiateIndex: 65535
      dummyAlignment: 0
      m_AllTileFlags: 1073741825
  - first: {x: 3, y: -3, z: 0}
    second:
      serializedVersion: 2
      m_TileIndex: 12
      m_TileSpriteIndex: 25
      m_TileMatrixIndex: 3
      m_TileColorIndex: 0
      m_TileObjectToInstantiateIndex: 65535
      dummyAlignment: 0
      m_AllTileFlags: 1073741825
  - first: {x: 4, y: -3, z: 0}
    second:
      serializedVersion: 2
      m_TileIndex: 13
      m_TileSpriteIndex: 24
      m_TileMatrixIndex: 3
      m_TileColorIndex: 0
      m_TileObjectToInstantiateIndex: 65535
      dummyAlignment: 0
      m_AllTileFlags: 1073741825
  - first: {x: 0, y: -2, z: 0}
    second:
      serializedVersion: 2
      m_TileIndex: 9
      m_TileSpriteIndex: 23
      m_TileMatrixIndex: 3
      m_TileColorIndex: 0
      m_TileObjectToInstantiateIndex: 65535
      dummyAlignment: 0
      m_AllTileFlags: 1073741825
  - first: {x: 1, y: -2, z: 0}
    second:
      serializedVersion: 2
      m_TileIndex: 4
      m_TileSpriteIndex: 22
      m_TileMatrixIndex: 3
      m_TileColorIndex: 0
      m_TileObjectToInstantiateIndex: 65535
      dummyAlignment: 0
      m_AllTileFlags: 1073741825
  - first: {x: 2, y: -2, z: 0}
    second:
      serializedVersion: 2
      m_TileIndex: 5
      m_TileSpriteIndex: 21
      m_TileMatrixIndex: 3
      m_TileColorIndex: 0
      m_TileObjectToInstantiateIndex: 65535
      dummyAlignment: 0
      m_AllTileFlags: 1073741825
  - first: {x: 3, y: -2, z: 0}
    second:
      serializedVersion: 2
      m_TileIndex: 6
      m_TileSpriteIndex: 20
      m_TileMatrixIndex: 3
      m_TileColorIndex: 0
      m_TileObjectToInstantiateIndex: 65535
      dummyAlignment: 0
      m_AllTileFlags: 1073741825
  - first: {x: 1, y: 0, z: 0}
    second:
      serializedVersion: 2
      m_TileIndex: 1
      m_TileSpriteIndex: 19
      m_TileMatrixIndex: 3
      m_TileColorIndex: 0
      m_TileObjectToInstantiateIndex: 65535
      dummyAlignment: 0
      m_AllTileFlags: 1073741825
  - first: {x: 3, y: 0, z: 0}
    second:
      serializedVersion: 2
      m_TileIndex: 2
      m_TileSpriteIndex: 18
      m_TileMatrixIndex: 3
      m_TileColorIndex: 0
      m_TileObjectToInstantiateIndex: 65535
      dummyAlignment: 0
      m_AllTileFlags: 1073741825
  - first: {x: -1, y: 1, z: 0}
    second:
      serializedVersion: 2
      m_TileIndex: 0
      m_TileSpriteIndex: 17
      m_TileMatrixIndex: 3
      m_TileColorIndex: 0
      m_TileObjectToInstantiateIndex: 65535
      dummyAlignment: 0
      m_AllTileFlags: 1073741825
  m_AnimatedTiles: {}
  m_TileAssetArray:
  - m_RefCount: 1
    m_Data: {fileID: 11400000, guid: a08157992ba8dc14d9998794adc52056, type: 2}
  - m_RefCount: 1
    m_Data: {fileID: 11400000, guid: 6a32c2e1f952a6749954578c0120ab79, type: 2}
  - m_RefCount: 1
    m_Data: {fileID: 11400000, guid: 416feb2b52a0fc741aa846d8d2c08ed1, type: 2}
  - m_RefCount: 0
    m_Data: {fileID: 0}
  - m_RefCount: 1
    m_Data: {fileID: 11400000, guid: fe914e68b586c074b8e64373a11e6ba4, type: 2}
  - m_RefCount: 1
    m_Data: {fileID: 11400000, guid: 2e0671fd0493e604d8e11b363bbe9574, type: 2}
  - m_RefCount: 1
    m_Data: {fileID: 11400000, guid: 81d40428c5d5d8c469f7557854085698, type: 2}
  - m_RefCount: 0
    m_Data: {fileID: 0}
  - m_RefCount: 1
    m_Data: {fileID: 11400000, guid: aff84d40efcf0354698d936871bddb02, type: 2}
  - m_RefCount: 1
    m_Data: {fileID: 11400000, guid: 2e776ca40e5d116498c5e6daa34b07b4, type: 2}
  - m_RefCount: 1
    m_Data: {fileID: 11400000, guid: 7d18d14ece5cde142949a623daaf65a1, type: 2}
  - m_RefCount: 1
    m_Data: {fileID: 11400000, guid: 3c59d39e4a632af4b979c46350061284, type: 2}
  - m_RefCount: 1
    m_Data: {fileID: 11400000, guid: 573e38958bfb70d4b800b463c9ee26be, type: 2}
  - m_RefCount: 1
    m_Data: {fileID: 11400000, guid: cfce0a01d7b14cd4cbfc764e3434add5, type: 2}
  - m_RefCount: 1
    m_Data: {fileID: 11400000, guid: ca6efb208c78dc943bf45b9294c4bc6c, type: 2}
  - m_RefCount: 1
    m_Data: {fileID: 11400000, guid: 303f9fe046ac52e42b432a7d499e5b17, type: 2}
  - m_RefCount: 1
    m_Data: {fileID: 11400000, guid: 318398cc94285014b80cff500ac719cf, type: 2}
  - m_RefCount: 1
    m_Data: {fileID: 11400000, guid: 83bae983f31f1a249afc14fa4906c9f0, type: 2}
  - m_RefCount: 1
    m_Data: {fileID: 11400000, guid: b269a7e7aeb72e34d9b6c131771e2886, type: 2}
  - m_RefCount: 1
    m_Data: {fileID: 11400000, guid: 51631f1a08d0a5b4ba579c5e9aeca53b, type: 2}
  - m_RefCount: 1
    m_Data: {fileID: 11400000, guid: 5721c0fdc0552d04f978ca1cd9a32de4, type: 2}
  - m_RefCount: 1
    m_Data: {fileID: 11400000, guid: 2334a6c34f77114468b6bbaf4771e591, type: 2}
  - m_RefCount: 1
    m_Data: {fileID: 11400000, guid: 222ee9f7668f7884dbe49fcb6a3795e8, type: 2}
  - m_RefCount: 1
    m_Data: {fileID: 11400000, guid: 791f2cd08110f024aa8efe3335ed1788, type: 2}
  - m_RefCount: 1
    m_Data: {fileID: 11400000, guid: 5c241b64884c8fd47acb0fd2094e9882, type: 2}
  - m_RefCount: 1
    m_Data: {fileID: 11400000, guid: 8d4e84e05db8f89409a1124813678e81, type: 2}
  - m_RefCount: 1
    m_Data: {fileID: 11400000, guid: 3bdab227984e48f4f96303dcb9ec08ec, type: 2}
  - m_RefCount: 1
    m_Data: {fileID: 11400000, guid: 4e9abeb43f579484ea09d8b0cfeee5fc, type: 2}
  - m_RefCount: 1
    m_Data: {fileID: 11400000, guid: 06adb50e3c0c70a44977bc2a490cc3a7, type: 2}
  - m_RefCount: 1
    m_Data: {fileID: 11400000, guid: b759cbbf010f1264dbf5b58976a2b462, type: 2}
  - m_RefCount: 1
    m_Data: {fileID: 11400000, guid: 8bed9315e5752c94e9f23e6446bf0078, type: 2}
  - m_RefCount: 1
    m_Data: {fileID: 11400000, guid: f65173a00d5468e49879edf8e871d551, type: 2}
  - m_RefCount: 1
    m_Data: {fileID: 11400000, guid: dfa34062b0b61da4785d282b7a32850e, type: 2}
  - m_RefCount: 1
    m_Data: {fileID: 11400000, guid: dcd8a605d4f6fb34ca5f8e1e3b4f15c0, type: 2}
  - m_RefCount: 1
    m_Data: {fileID: 11400000, guid: 723bd16371e3e624889f6c3152b41921, type: 2}
  - m_RefCount: 1
    m_Data: {fileID: 11400000, guid: 2d745a1ece4e0604aa6a71878f9ef780, type: 2}
  - m_RefCount: 1
    m_Data: {fileID: 11400000, guid: dcd710973b54e1548addca97ee14ee12, type: 2}
  - m_RefCount: 1
    m_Data: {fileID: 11400000, guid: bdd3d0da0cda1fd4da63b099e8de2a9d, type: 2}
  - m_RefCount: 1
    m_Data: {fileID: 11400000, guid: 3490cd460a043c5458505e24954f5a1c, type: 2}
  - m_RefCount: 1
    m_Data: {fileID: 11400000, guid: 0f1d69c4f5af0b9448b798bc932417af, type: 2}
  - m_RefCount: 1
    m_Data: {fileID: 11400000, guid: 240b4ca3c23368d44902e967bbdb27f8, type: 2}
  - m_RefCount: 1
    m_Data: {fileID: 11400000, guid: c7b8a3398bf74054c9ee812239ca1656, type: 2}
  - m_RefCount: 0
    m_Data: {fileID: 0}
  - m_RefCount: 0
    m_Data: {fileID: 0}
  - m_RefCount: 0
    m_Data: {fileID: 0}
  - m_RefCount: 0
    m_Data: {fileID: 0}
  - m_RefCount: 0
    m_Data: {fileID: 0}
  - m_RefCount: 0
    m_Data: {fileID: 0}
  - m_RefCount: 0
    m_Data: {fileID: 0}
  - m_RefCount: 0
    m_Data: {fileID: 0}
  - m_RefCount: 0
    m_Data: {fileID: 0}
  - m_RefCount: 0
    m_Data: {fileID: 0}
  - m_RefCount: 0
    m_Data: {fileID: 0}
  - m_RefCount: 0
    m_Data: {fileID: 0}
  - m_RefCount: 0
    m_Data: {fileID: 0}
  - m_RefCount: 0
    m_Data: {fileID: 0}
  - m_RefCount: 1
    m_Data: {fileID: 11400000, guid: 1bf74469332381542885074dcf3c4678, type: 2}
  m_TileSpriteArray:
  - m_RefCount: 0
    m_Data: {fileID: 0}
  - m_RefCount: 0
    m_Data: {fileID: 0}
  - m_RefCount: 0
    m_Data: {fileID: 0}
  - m_RefCount: 0
    m_Data: {fileID: 0}
  - m_RefCount: 0
    m_Data: {fileID: 0}
  - m_RefCount: 0
    m_Data: {fileID: 0}
  - m_RefCount: 0
    m_Data: {fileID: 0}
  - m_RefCount: 0
    m_Data: {fileID: 0}
  - m_RefCount: 0
    m_Data: {fileID: 0}
  - m_RefCount: 0
    m_Data: {fileID: 0}
  - m_RefCount: 0
    m_Data: {fileID: 0}
  - m_RefCount: 0
    m_Data: {fileID: 0}
  - m_RefCount: 0
    m_Data: {fileID: 0}
  - m_RefCount: 0
    m_Data: {fileID: 0}
  - m_RefCount: 0
    m_Data: {fileID: 0}
  - m_RefCount: 0
    m_Data: {fileID: 0}
  - m_RefCount: 1
    m_Data: {fileID: -2118346777, guid: e215691a52d72234780cef3fe7a23fc8, type: 3}
  - m_RefCount: 1
    m_Data: {fileID: 1131941339, guid: e215691a52d72234780cef3fe7a23fc8, type: 3}
  - m_RefCount: 1
    m_Data: {fileID: -1514458727, guid: e215691a52d72234780cef3fe7a23fc8, type: 3}
  - m_RefCount: 1
    m_Data: {fileID: 1080384922, guid: e215691a52d72234780cef3fe7a23fc8, type: 3}
  - m_RefCount: 1
    m_Data: {fileID: -1404167303, guid: e215691a52d72234780cef3fe7a23fc8, type: 3}
  - m_RefCount: 1
    m_Data: {fileID: 263610959, guid: e215691a52d72234780cef3fe7a23fc8, type: 3}
  - m_RefCount: 1
    m_Data: {fileID: -484592226, guid: e215691a52d72234780cef3fe7a23fc8, type: 3}
  - m_RefCount: 1
    m_Data: {fileID: 2000799026, guid: e215691a52d72234780cef3fe7a23fc8, type: 3}
  - m_RefCount: 1
    m_Data: {fileID: -2117827144, guid: e215691a52d72234780cef3fe7a23fc8, type: 3}
  - m_RefCount: 1
    m_Data: {fileID: -1906328813, guid: e215691a52d72234780cef3fe7a23fc8, type: 3}
  - m_RefCount: 1
    m_Data: {fileID: -1971495968, guid: e215691a52d72234780cef3fe7a23fc8, type: 3}
  - m_RefCount: 1
    m_Data: {fileID: 1113789765, guid: e215691a52d72234780cef3fe7a23fc8, type: 3}
  - m_RefCount: 1
    m_Data: {fileID: -938471691, guid: e215691a52d72234780cef3fe7a23fc8, type: 3}
  - m_RefCount: 1
    m_Data: {fileID: -980668963, guid: e215691a52d72234780cef3fe7a23fc8, type: 3}
  - m_RefCount: 1
    m_Data: {fileID: -862409866, guid: e215691a52d72234780cef3fe7a23fc8, type: 3}
  - m_RefCount: 1
    m_Data: {fileID: 2128190038, guid: e215691a52d72234780cef3fe7a23fc8, type: 3}
  - m_RefCount: 1
    m_Data: {fileID: 1283223718, guid: e215691a52d72234780cef3fe7a23fc8, type: 3}
  - m_RefCount: 1
    m_Data: {fileID: -1494365421, guid: e215691a52d72234780cef3fe7a23fc8, type: 3}
  - m_RefCount: 1
    m_Data: {fileID: 837672522, guid: e215691a52d72234780cef3fe7a23fc8, type: 3}
  - m_RefCount: 1
    m_Data: {fileID: 1402418804, guid: e215691a52d72234780cef3fe7a23fc8, type: 3}
  - m_RefCount: 1
    m_Data: {fileID: -821323469, guid: e215691a52d72234780cef3fe7a23fc8, type: 3}
  - m_RefCount: 1
    m_Data: {fileID: -1738382446, guid: e215691a52d72234780cef3fe7a23fc8, type: 3}
  - m_RefCount: 1
    m_Data: {fileID: -340335230, guid: e215691a52d72234780cef3fe7a23fc8, type: 3}
  - m_RefCount: 1
    m_Data: {fileID: 853779528, guid: e215691a52d72234780cef3fe7a23fc8, type: 3}
  - m_RefCount: 1
    m_Data: {fileID: -1583195180, guid: e215691a52d72234780cef3fe7a23fc8, type: 3}
  - m_RefCount: 1
    m_Data: {fileID: 364251532, guid: e215691a52d72234780cef3fe7a23fc8, type: 3}
  - m_RefCount: 1
    m_Data: {fileID: -1076969389, guid: e215691a52d72234780cef3fe7a23fc8, type: 3}
  - m_RefCount: 1
    m_Data: {fileID: -1092591827, guid: e215691a52d72234780cef3fe7a23fc8, type: 3}
  - m_RefCount: 1
    m_Data: {fileID: 676347549, guid: e215691a52d72234780cef3fe7a23fc8, type: 3}
  - m_RefCount: 1
    m_Data: {fileID: -203010690, guid: e215691a52d72234780cef3fe7a23fc8, type: 3}
  - m_RefCount: 1
    m_Data: {fileID: -1029536750, guid: e215691a52d72234780cef3fe7a23fc8, type: 3}
  - m_RefCount: 1
    m_Data: {fileID: -181637629, guid: e215691a52d72234780cef3fe7a23fc8, type: 3}
  - m_RefCount: 1
    m_Data: {fileID: 466902135, guid: e215691a52d72234780cef3fe7a23fc8, type: 3}
  - m_RefCount: 1
    m_Data: {fileID: -1187168839, guid: e215691a52d72234780cef3fe7a23fc8, type: 3}
  - m_RefCount: 1
    m_Data: {fileID: -451436683, guid: e215691a52d72234780cef3fe7a23fc8, type: 3}
  - m_RefCount: 1
    m_Data: {fileID: 264053707, guid: e215691a52d72234780cef3fe7a23fc8, type: 3}
  - m_RefCount: 1
    m_Data: {fileID: -1771672661, guid: e215691a52d72234780cef3fe7a23fc8, type: 3}
  - m_RefCount: 1
    m_Data: {fileID: -571847519, guid: e215691a52d72234780cef3fe7a23fc8, type: 3}
  - m_RefCount: 1
    m_Data: {fileID: 70741509, guid: e215691a52d72234780cef3fe7a23fc8, type: 3}
  - m_RefCount: 1
    m_Data: {fileID: -1180945250, guid: e215691a52d72234780cef3fe7a23fc8, type: 3}
  - m_RefCount: 1
    m_Data: {fileID: -1142883663, guid: e215691a52d72234780cef3fe7a23fc8, type: 3}
  m_TileMatrixArray:
  - m_RefCount: 0
    m_Data:
      e00: 91624830
      e01: NaN
      e02: -0.00044226414
      e03: 0
      e10: 3.32e-43
      e11: 1e-45
      e12: 4.5905e-41
      e13: 0
      e20: NaN
      e21: 0
      e22: 91624700
      e23: 0
      e30: 0
      e31: 7.34684e-40
      e32: 3.32e-43
      e33: 1
  - m_RefCount: 0
    m_Data:
      e00: 91624830
      e01: NaN
      e02: -0.00044226414
      e03: 0
      e10: 3.32e-43
      e11: 1e-45
      e12: 4.5905e-41
      e13: 0
      e20: NaN
      e21: 0
      e22: 91624700
      e23: 0
      e30: 0
      e31: 7.34684e-40
      e32: 3.32e-43
      e33: 1
  - m_RefCount: 0
    m_Data:
      e00: 91587710
      e01: 0
      e02: -0.00044226414
      e03: 0
      e10: 3.32e-43
      e11: NaN
      e12: 4.5905e-41
      e13: 0
      e20: NaN
      e21: 0
      e22: 91587580
      e23: 0
      e30: 0
      e31: 7.34684e-40
      e32: 3.32e-43
      e33: 1
  - m_RefCount: 41
    m_Data:
      e00: 1
      e01: 0
      e02: 0
      e03: -0.5
      e10: 0
      e11: 1
      e12: 0
      e13: 0.5
      e20: 0
      e21: 0
      e22: 1
      e23: 0
      e30: 0
      e31: 0
      e32: 0
      e33: 1
  - m_RefCount: 0
    m_Data:
      e00: 1.6011005e-24
      e01: NaN
      e02: -0.00044226414
      e03: 0
      e10: 2.09e-43
      e11: NaN
      e12: 4.5905e-41
      e13: 0
      e20: NaN
      e21: 0
      e22: 1.6010989e-24
      e23: 0
      e30: 0
      e31: 7.34684e-40
      e32: 2.09e-43
      e33: 1
  m_TileColorArray:
  - m_RefCount: 41
    m_Data: {r: 1, g: 1, b: 1, a: 1}
  m_TileObjectToInstantiateArray: []
  m_AnimationFrameRate: 1
  m_Color: {r: 1, g: 1, b: 1, a: 1}
  m_Origin: {x: -10, y: -7, z: 0}
  m_Size: {x: 15, y: 10, z: 1}
  m_TileAnchor: {x: 0.5, y: 0.5, z: 0}
  m_TileOrientation: 0
  m_TileOrientationMatrix:
    e00: 1
    e01: 0
    e02: 0
    e03: 0
    e10: 0
    e11: 1
    e12: 0
    e13: 0
    e20: 0
    e21: 0
    e22: 1
    e23: 0
    e30: 0
    e31: 0
    e32: 0
    e33: 1
--- !u!483693784 &2471617110014099948
TilemapRenderer:
  m_ObjectHideFlags: 0
  m_CorrespondingSourceObject: {fileID: 0}
  m_PrefabInstance: {fileID: 0}
  m_PrefabAsset: {fileID: 0}
  m_GameObject: {fileID: 217548568787870632}
  m_Enabled: 1
  m_CastShadows: 0
  m_ReceiveShadows: 0
  m_DynamicOccludee: 0
  m_StaticShadowCaster: 0
  m_MotionVectors: 1
  m_LightProbeUsage: 0
  m_ReflectionProbeUsage: 0
  m_RayTracingMode: 0
  m_RayTraceProcedural: 0
  m_RenderingLayerMask: 1
  m_RendererPriority: 0
  m_Materials:
  - {fileID: 10754, guid: 0000000000000000f000000000000000, type: 0}
  m_StaticBatchInfo:
    firstSubMesh: 0
    subMeshCount: 0
  m_StaticBatchRoot: {fileID: 0}
  m_ProbeAnchor: {fileID: 0}
  m_LightProbeVolumeOverride: {fileID: 0}
  m_ScaleInLightmap: 1
  m_ReceiveGI: 1
  m_PreserveUVs: 0
  m_IgnoreNormalsForChartDetection: 0
  m_ImportantGI: 0
  m_StitchLightmapSeams: 1
  m_SelectedEditorRenderState: 0
  m_MinimumChartSize: 4
  m_AutoUVMaxDistance: 0.5
  m_AutoUVMaxAngle: 89
  m_LightmapParameters: {fileID: 0}
  m_SortingLayerID: 0
  m_SortingLayer: 0
  m_SortingOrder: 0
  m_ChunkSize: {x: 32, y: 32, z: 32}
  m_ChunkCullingBounds: {x: 1.5, y: 1.5, z: 0}
  m_MaxChunkCount: 16
  m_MaxFrameAge: 16
  m_SortOrder: 0
  m_Mode: 0
  m_DetectChunkCullingBounds: 0
  m_MaskInteraction: 0
--- !u!1 &9025150310478145694
GameObject:
  m_ObjectHideFlags: 0
  m_CorrespondingSourceObject: {fileID: 0}
  m_PrefabInstance: {fileID: 0}
  m_PrefabAsset: {fileID: 0}
  serializedVersion: 6
  m_Component:
  - component: {fileID: 6890611367865703087}
  - component: {fileID: 8207975584220699253}
  m_Layer: 0
  m_Name: Prototype
  m_TagString: Untagged
  m_Icon: {fileID: 0}
  m_NavMeshLayer: 0
  m_StaticEditorFlags: 0
  m_IsActive: 1
--- !u!4 &6890611367865703087
Transform:
  m_ObjectHideFlags: 0
  m_CorrespondingSourceObject: {fileID: 0}
  m_PrefabInstance: {fileID: 0}
  m_PrefabAsset: {fileID: 0}
  m_GameObject: {fileID: 9025150310478145694}
  m_LocalRotation: {x: 0, y: 0, z: 0, w: 1}
  m_LocalPosition: {x: 0, y: 0, z: 0}
  m_LocalScale: {x: 1, y: 1, z: 1}
  m_ConstrainProportionsScale: 0
  m_Children:
  - {fileID: 9084137030308292026}
  m_Father: {fileID: 0}
  m_RootOrder: 0
  m_LocalEulerAnglesHint: {x: 0, y: 0, z: 0}
--- !u!156049354 &8207975584220699253
Grid:
  m_ObjectHideFlags: 0
  m_CorrespondingSourceObject: {fileID: 0}
  m_PrefabInstance: {fileID: 0}
  m_PrefabAsset: {fileID: 0}
  m_GameObject: {fileID: 9025150310478145694}
  m_Enabled: 1
  m_CellSize: {x: 1, y: 1, z: 0}
  m_CellGap: {x: 0, y: 0, z: 0}
  m_CellLayout: 0
  m_CellSwizzle: 0
--- !u!114 &2841621522887535275
MonoBehaviour:
  m_ObjectHideFlags: 0
  m_CorrespondingSourceObject: {fileID: 0}
  m_PrefabInstance: {fileID: 0}
  m_PrefabAsset: {fileID: 0}
  m_GameObject: {fileID: 0}
  m_Enabled: 1
  m_EditorHideFlags: 0
  m_Script: {fileID: 12395, guid: 0000000000000000e000000000000000, type: 0}
  m_Name: Palette Settings
  m_EditorClassIdentifier: 
  cellSizing: 0
  m_TransparencySortMode: 0
  m_TransparencySortAxis: {x: 0, y: 0, z: 1}
