%YAML 1.1
%TAG !u! tag:unity3d.com,2011:
--- !u!114 &11400000
MonoBehaviour:
  m_ObjectHideFlags: 0
  m_CorrespondingSourceObject: {fileID: 0}
  m_PrefabInstance: {fileID: 0}
  m_PrefabAsset: {fileID: 0}
  m_GameObject: {fileID: 0}
  m_Enabled: 1
  m_EditorHideFlags: 0
  m_Script: {fileID: 11500000, guid: e4db6514a2e4e194bbd1c6bdae54f388, type: 3}
  m_Name: BossRoomTileSet
  m_EditorClassIdentifier: 
  TileWeights:
    Weights:
    - Value: {fileID: 6279463588273154159, guid: b4fc4f91bba90c34bb9114901f927616, type: 3}
      MainPathWeight: 1
      BranchPathWeight: 1
      DepthWeightScale:
        serializedVersion: 2
        m_Curve:
        - serializedVersion: 3
          time: 0
          value: 1
          inSlope: 0
          outSlope: 0
          tangentMode: 0
          weightedMode: 0
          inWeight: 0
          outWeight: 0
        - serializedVersion: 3
          time: 1
          value: 1
          inSlope: 0
          outSlope: 0
          tangentMode: 0
          weightedMode: 0
          inWeight: 0
          outWeight: 0
        m_PreInfinity: 2
        m_PostInfinity: 2
        m_RotationOrder: 4
      TileSet: {fileID: 11400000}
  LockPrefabs: []
